frame:5    pts:20480   pts_time:0.426667
lavfi.silence_start=0
frame:32   pts:131072  pts_time:2.73067
lavfi.silence_end=2.75896
lavfi.silence_duration=2.75896
frame:69   pts:282624  pts_time:5.888
lavfi.silence_start=5.46137
frame:93   pts:380928  pts_time:7.936
lavfi.silence_end=7.96342
lavfi.silence_duration=2.50204
frame:140  pts:573440  pts_time:11.9467
lavfi.silence_start=11.5246
frame:148  pts:606208  pts_time:12.6293
lavfi.silence_end=12.6838
lavfi.silence_duration=1.15912
frame:165  pts:675840  pts_time:14.08
lavfi.silence_start=13.6446
frame:243  pts:995328  pts_time:20.736
lavfi.silence_end=20.7832
lavfi.silence_duration=7.13862
frame:263  pts:1077248 pts_time:22.4427
lavfi.silence_start=21.9848
frame:273  pts:1118208 pts_time:23.296
lavfi.silence_end=23.3233
lavfi.silence_duration=1.33854
frame:290  pts:1187840 pts_time:24.7467
lavfi.silence_start=24.2642
frame:303  pts:1241088 pts_time:25.856
lavfi.silence_end=25.9031
lavfi.silence_duration=1.6389
frame:362  pts:1482752 pts_time:30.8907
lavfi.silence_start=30.4248
frame:374  pts:1531904 pts_time:31.9147
lavfi.silence_end=31.963
lavfi.silence_duration=1.53819
frame:388  pts:1589248 pts_time:33.1093
lavfi.silence_start=32.6247
frame:431  pts:1765376 pts_time:36.7787
lavfi.silence_end=36.843
lavfi.silence_duration=4.21823
frame:440  pts:1802240 pts_time:37.5467
lavfi.silence_start=37.1039
frame:474  pts:1941504 pts_time:40.448
lavfi.silence_end=40.5032
lavfi.silence_duration=3.39931
frame:484  pts:1982464 pts_time:41.3013
lavfi.silence_start=40.8448
frame:486  pts:1990656 pts_time:41.472
lavfi.silence_end=41.5431
lavfi.silence_duration=0.698271
frame:495  pts:2027520 pts_time:42.24
lavfi.silence_start=41.8043
frame:508  pts:2080768 pts_time:43.3493
lavfi.silence_end=43.3633
lavfi.silence_duration=1.55894
frame:525  pts:2150400 pts_time:44.8
lavfi.silence_start=44.3383
frame:557  pts:2281472 pts_time:47.5307
lavfi.silence_end=47.5463
lavfi.silence_duration=3.20792
frame:616  pts:2523136 pts_time:52.5653
lavfi.silence_start=52.1241
frame:640  pts:2621440 pts_time:54.6133
lavfi.silence_end=54.6545
lavfi.silence_duration=2.53037
frame:650  pts:2662400 pts_time:55.4667
lavfi.silence_start=54.9844
frame:722  pts:2957312 pts_time:61.6107
lavfi.silence_end=61.6638
lavfi.silence_duration=6.67946
frame:785  pts:3215360 pts_time:66.9867
lavfi.silence_start=66.5245
frame:1004 pts:4112384 pts_time:85.6747
lavfi.silence_end=85.7433
lavfi.silence_duration=19.2189
frame:1034 pts:4235264 pts_time:88.2347
lavfi.silence_start=87.819
frame:1036 pts:4243456 pts_time:88.4053
lavfi.silence_end=88.479
lavfi.silence_duration=0.659937
frame:1074 pts:4399104 pts_time:91.648
lavfi.silence_start=91.2332
frame:1081 pts:4427776 pts_time:92.2453
lavfi.silence_end=92.2459
lavfi.silence_duration=1.01269
frame:1101 pts:4509696 pts_time:93.952
lavfi.silence_start=93.4825
frame:1118 pts:4579328 pts_time:95.4027
lavfi.silence_end=95.4637
lavfi.silence_duration=1.98123
frame:1183 pts:4845568 pts_time:100.949
lavfi.silence_start=100.524
frame:1184 pts:4849664 pts_time:101.035
lavfi.silence_end=101.084
lavfi.silence_duration=0.559417
frame:1314 pts:5382144 pts_time:112.128
lavfi.silence_start=111.664
frame:1328 pts:5439488 pts_time:113.323
lavfi.silence_end=113.379
lavfi.silence_duration=1.71481
frame:1388 pts:5685248 pts_time:118.443
lavfi.silence_start=118.004
frame:1397 pts:5722112 pts_time:119.211
lavfi.silence_end=119.283
lavfi.silence_duration=1.27913
frame:1492 pts:6111232 pts_time:127.317
lavfi.silence_start=126.824
frame:1497 pts:6131712 pts_time:127.744
lavfi.silence_end=127.823
lavfi.silence_duration=0.998917
frame:1517 pts:6213632 pts_time:129.451
lavfi.silence_start=128.985
frame:1529 pts:6262784 pts_time:130.475
lavfi.silence_end=130.487
lavfi.silence_duration=1.50227
frame:1587 pts:6500352 pts_time:135.424
lavfi.silence_start=135.004
frame:1633 pts:6688768 pts_time:139.349
lavfi.silence_end=139.379
lavfi.silence_duration=4.37481
frame:1652 pts:6766592 pts_time:140.971
lavfi.silence_start=140.544
frame:1662 pts:6807552 pts_time:141.824
lavfi.silence_end=141.864
lavfi.silence_duration=1.32042
frame:1671 pts:6844416 pts_time:142.592
lavfi.silence_start=142.124
frame:1683 pts:6893568 pts_time:143.616
lavfi.silence_end=143.623
lavfi.silence_duration=1.49896
frame:1710 pts:7004160 pts_time:145.92
lavfi.silence_start=145.424
frame:1755 pts:7188480 pts_time:149.76
lavfi.silence_end=149.845
lavfi.silence_duration=4.42104
frame:1770 pts:7249920 pts_time:151.04
lavfi.silence_start=150.624
frame:1811 pts:7417856 pts_time:154.539
lavfi.silence_end=154.583
lavfi.silence_duration=3.9589
frame:1820 pts:7454720 pts_time:155.307
lavfi.silence_start=154.864
frame:1831 pts:7499776 pts_time:156.245
lavfi.silence_end=156.263
lavfi.silence_duration=1.39921
frame:1854 pts:7593984 pts_time:158.208
lavfi.silence_start=157.744
frame:1906 pts:7806976 pts_time:162.645
lavfi.silence_end=162.724
lavfi.silence_duration=4.97958
frame:1931 pts:7909376 pts_time:164.779
lavfi.silence_start=164.324
frame:1943 pts:7958528 pts_time:165.803
lavfi.silence_end=165.883
lavfi.silence_duration=1.55875
frame:1953 pts:7999488 pts_time:166.656
lavfi.silence_start=166.184
frame:2007 pts:8220672 pts_time:171.264
lavfi.silence_end=171.344
lavfi.silence_duration=5.15931
frame:2058 pts:8429568 pts_time:175.616
lavfi.silence_start=175.144
frame:2103 pts:8613888 pts_time:179.456
lavfi.silence_end=179.483
lavfi.silence_duration=4.33958
frame:2151 pts:8810496 pts_time:183.552
lavfi.silence_start=183.105
frame:2205 pts:9031680 pts_time:188.16
lavfi.silence_end=188.183
lavfi.silence_duration=5.07802
frame:2261 pts:9261056 pts_time:192.939
lavfi.silence_start=192.489
frame:2328 pts:9535488 pts_time:198.656
lavfi.silence_end=198.703
lavfi.silence_duration=6.21413
frame:2341 pts:9588736 pts_time:199.765
lavfi.silence_start=199.304
frame:2396 pts:9814016 pts_time:204.459
lavfi.silence_end=204.463
lavfi.silence_duration=5.15867
frame:2415 pts:9891840 pts_time:206.08
lavfi.silence_start=205.604
frame:2453 pts:10047488 pts_time:209.323
lavfi.silence_end=209.363
lavfi.silence_duration=3.75862
frame:2462 pts:10084352 pts_time:210.091
lavfi.silence_start=209.624
frame:2577 pts:10555392 pts_time:219.904
lavfi.silence_end=219.964
lavfi.silence_duration=10.3396
frame:2602 pts:10657792 pts_time:222.037
lavfi.silence_start=221.545
frame:2607 pts:10678272 pts_time:222.464
lavfi.silence_end=222.544
lavfi.silence_duration=0.999167
frame:2648 pts:10846208 pts_time:225.963
lavfi.silence_start=225.484
frame:2652 pts:10862592 pts_time:226.304
lavfi.silence_end=226.343
lavfi.silence_duration=0.85875
frame:2661 pts:10899456 pts_time:227.072
lavfi.silence_start=226.644
frame:2697 pts:11046912 pts_time:230.144
lavfi.silence_end=230.184
lavfi.silence_duration=3.53931
frame:2739 pts:11218944 pts_time:233.728
lavfi.silence_start=233.283
frame:2740 pts:11223040 pts_time:233.813
lavfi.silence_end=233.839
lavfi.silence_duration=0.555958
frame:2766 pts:11329536 pts_time:236.032
lavfi.silence_start=235.564
frame:2790 pts:11427840 pts_time:238.08
lavfi.silence_end=238.163
lavfi.silence_duration=2.59894
frame:2841 pts:11636736 pts_time:242.432
lavfi.silence_start=241.941
frame:2843 pts:11644928 pts_time:242.603
lavfi.silence_end=242.663
lavfi.silence_duration=0.722396
frame:2907 pts:11907072 pts_time:248.064
lavfi.silence_start=247.584
frame:2934 pts:12017664 pts_time:250.368
lavfi.silence_end=250.403
lavfi.silence_duration=2.81929
frame:2967 pts:12152832 pts_time:253.184
lavfi.silence_start=252.724
frame:2989 pts:12242944 pts_time:255.061
lavfi.silence_end=255.143
lavfi.silence_duration=2.41856
frame:3008 pts:12320768 pts_time:256.683
lavfi.silence_start=256.204
frame:3016 pts:12353536 pts_time:257.365
lavfi.silence_end=257.384
lavfi.silence_duration=1.18006
frame:3030 pts:12410880 pts_time:258.56
lavfi.silence_start=258.104
frame:3048 pts:12484608 pts_time:260.096
lavfi.silence_end=260.164
lavfi.silence_duration=2.0595
frame:3059 pts:12529664 pts_time:261.035
lavfi.silence_start=260.564
frame:3065 pts:12554240 pts_time:261.547
lavfi.silence_end=261.559
lavfi.silence_duration=0.995208
frame:3119 pts:12775424 pts_time:266.155
lavfi.silence_start=265.704
frame:3138 pts:12853248 pts_time:267.776
lavfi.silence_end=267.824
lavfi.silence_duration=2.11975
frame:3198 pts:13099008 pts_time:272.896
lavfi.silence_start=272.419
frame:3200 pts:13107200 pts_time:273.067
lavfi.silence_end=273.086
lavfi.silence_duration=0.667312
frame:3219 pts:13185024 pts_time:274.688
lavfi.silence_start=274.244
frame:3226 pts:13213696 pts_time:275.285
lavfi.silence_end=275.323
lavfi.silence_duration=1.07898
frame:3238 pts:13262848 pts_time:276.309
lavfi.silence_start=275.844
frame:3239 pts:13266944 pts_time:276.395
lavfi.silence_end=276.463
lavfi.silence_duration=0.618896
frame:3270 pts:13393920 pts_time:279.04
lavfi.silence_start=278.584
frame:3354 pts:13737984 pts_time:286.208
lavfi.silence_end=286.243
lavfi.silence_duration=7.65896
frame:3467 pts:14200832 pts_time:295.851
lavfi.silence_start=295.425
frame:3558 pts:14573568 pts_time:303.616
lavfi.silence_end=303.644
lavfi.silence_duration=8.21937
frame:3578 pts:14655488 pts_time:305.323
lavfi.silence_start=304.824
frame:3607 pts:14774272 pts_time:307.797
lavfi.silence_end=307.799
lavfi.silence_duration=2.97496
frame:3618 pts:14819328 pts_time:308.736
lavfi.silence_start=308.264
frame:3639 pts:14905344 pts_time:310.528
lavfi.silence_end=310.543
lavfi.silence_duration=2.27885
frame:3649 pts:14946304 pts_time:311.381
lavfi.silence_start=310.884
frame:3689 pts:15110144 pts_time:314.795
lavfi.silence_end=314.823
lavfi.silence_duration=3.93877
frame:3703 pts:15167488 pts_time:315.989
lavfi.silence_start=315.524
frame:3744 pts:15335424 pts_time:319.488
lavfi.silence_end=319.523
lavfi.silence_duration=3.99892
frame:3828 pts:15679488 pts_time:326.656
lavfi.silence_start=326.216
frame:3833 pts:15699968 pts_time:327.083
lavfi.silence_end=327.124
lavfi.silence_duration=0.907875
frame:3863 pts:15822848 pts_time:329.643
lavfi.silence_start=329.164
frame:3883 pts:15904768 pts_time:331.349
lavfi.silence_end=331.383
lavfi.silence_duration=2.21929
frame:3901 pts:15978496 pts_time:332.885
lavfi.silence_start=332.425
frame:3967 pts:16248832 pts_time:338.517
lavfi.silence_end=338.523
lavfi.silence_duration=6.09894
frame:3987 pts:16330752 pts_time:340.224
lavfi.silence_start=339.724
frame:4002 pts:16392192 pts_time:341.504
lavfi.silence_end=341.523
lavfi.silence_duration=1.79844
frame:4014 pts:16441344 pts_time:342.528
lavfi.silence_start=342.104
frame:4042 pts:16556032 pts_time:344.917
lavfi.silence_end=344.963
lavfi.silence_duration=2.85894
frame:4058 pts:16621568 pts_time:346.283
lavfi.silence_start=345.864
frame:4066 pts:16654336 pts_time:346.965
lavfi.silence_end=347.023
lavfi.silence_duration=1.15931
frame:4082 pts:16719872 pts_time:348.331
lavfi.silence_start=347.864
frame:4112 pts:16842752 pts_time:350.891
lavfi.silence_end=350.903
lavfi.silence_duration=3.03894
frame:4273 pts:17502208 pts_time:364.629
lavfi.silence_start=364.204
frame:4298 pts:17604608 pts_time:366.763
lavfi.silence_end=366.763
lavfi.silence_duration=2.55963
frame:4310 pts:17653760 pts_time:367.787
lavfi.silence_start=367.364
frame:4462 pts:18276352 pts_time:380.757
lavfi.silence_end=380.783
lavfi.silence_duration=13.419
frame:4482 pts:18358272 pts_time:382.464
lavfi.silence_start=382.004
frame:4524 pts:18530304 pts_time:386.048
lavfi.silence_end=386.124
lavfi.silence_duration=4.11931
frame:4533 pts:18567168 pts_time:386.816
lavfi.silence_start=386.384
frame:4537 pts:18583552 pts_time:387.157
lavfi.silence_end=387.223
lavfi.silence_duration=0.8395
frame:4579 pts:18755584 pts_time:390.741
lavfi.silence_start=390.304
frame:4627 pts:18952192 pts_time:394.837
lavfi.silence_end=394.866
lavfi.silence_duration=4.56267
frame:4654 pts:19062784 pts_time:397.141
lavfi.silence_start=396.705
frame:4656 pts:19070976 pts_time:397.312
lavfi.silence_end=397.383
lavfi.silence_duration=0.678438
frame:4665 pts:19107840 pts_time:398.08
lavfi.silence_start=397.664
frame:4678 pts:19161088 pts_time:399.189
lavfi.silence_end=399.243
lavfi.silence_duration=1.57902
frame:4687 pts:19197952 pts_time:399.957
lavfi.silence_start=399.504
frame:4718 pts:19324928 pts_time:402.603
lavfi.silence_end=402.623
lavfi.silence_duration=3.11898
frame:4755 pts:19476480 pts_time:405.76
lavfi.silence_start=405.324
frame:4839 pts:19820544 pts_time:412.928
lavfi.silence_end=413.003
lavfi.silence_duration=7.679
frame:4900 pts:20070400 pts_time:418.133
lavfi.silence_start=417.684
frame:4910 pts:20111360 pts_time:418.987
lavfi.silence_end=419.043
lavfi.silence_duration=1.35881
frame:4925 pts:20172800 pts_time:420.267
lavfi.silence_start=419.844
frame:4926 pts:20176896 pts_time:420.352
lavfi.silence_end=420.403
lavfi.silence_duration=0.559083
frame:4943 pts:20246528 pts_time:421.803
lavfi.silence_start=421.385
frame:4959 pts:20312064 pts_time:423.168
lavfi.silence_end=423.183
lavfi.silence_duration=1.79852
frame:4969 pts:20353024 pts_time:424.021
lavfi.silence_start=423.524
frame:4971 pts:20361216 pts_time:424.192
lavfi.silence_end=424.263
lavfi.silence_duration=0.739
frame:5038 pts:20635648 pts_time:429.909
lavfi.silence_start=429.424
frame:5047 pts:20672512 pts_time:430.677
lavfi.silence_end=430.703
lavfi.silence_duration=1.27883
frame:5081 pts:20811776 pts_time:433.579
lavfi.silence_start=433.104
frame:5082 pts:20815872 pts_time:433.664
lavfi.silence_end=433.705
lavfi.silence_duration=0.601562
frame:5097 pts:20877312 pts_time:434.944
lavfi.silence_start=434.465
frame:5103 pts:20901888 pts_time:435.456
lavfi.silence_end=435.499
lavfi.silence_duration=1.03429
frame:5124 pts:20987904 pts_time:437.248
lavfi.silence_start=436.819
frame:5142 pts:21061632 pts_time:438.784
lavfi.silence_end=438.839
lavfi.silence_duration=2.01994
frame:5164 pts:21151744 pts_time:440.661
lavfi.silence_start=440.183
frame:5167 pts:21164032 pts_time:440.917
lavfi.silence_end=440.985
lavfi.silence_duration=0.801812
frame:5202 pts:21307392 pts_time:443.904
lavfi.silence_start=443.424
frame:5210 pts:21340160 pts_time:444.587
lavfi.silence_end=444.663
lavfi.silence_duration=1.2394
frame:5285 pts:21647360 pts_time:450.987
lavfi.silence_start=450.499
frame:5293 pts:21680128 pts_time:451.669
lavfi.silence_end=451.745
lavfi.silence_duration=1.24569
frame:5308 pts:21741568 pts_time:452.949
lavfi.silence_start=452.464
frame:5346 pts:21897216 pts_time:456.192
lavfi.silence_end=456.203
lavfi.silence_duration=3.73887
frame:5378 pts:22028288 pts_time:458.923
lavfi.silence_start=458.464
frame:5382 pts:22044672 pts_time:459.264
lavfi.silence_end=459.343
lavfi.silence_duration=0.878625
frame:5393 pts:22089728 pts_time:460.203
lavfi.silence_start=459.744
frame:5400 pts:22118400 pts_time:460.8
lavfi.silence_end=460.883
lavfi.silence_duration=1.13921
frame:5434 pts:22257664 pts_time:463.701
lavfi.silence_start=463.284
frame:5500 pts:22528000 pts_time:469.333
lavfi.silence_end=469.383
lavfi.silence_duration=6.09923
frame:5509 pts:22564864 pts_time:470.101
lavfi.silence_start=469.664
frame:5535 pts:22671360 pts_time:472.32
lavfi.silence_end=472.383
lavfi.silence_duration=2.71873
frame:5544 pts:22708224 pts_time:473.088
lavfi.silence_start=472.624
frame:5546 pts:22716416 pts_time:473.259
lavfi.silence_end=473.263
lavfi.silence_duration=0.639208
frame:5555 pts:22753280 pts_time:474.027
lavfi.silence_start=473.544
frame:5951 pts:24375296 pts_time:507.819
lavfi.silence_end=507.824
lavfi.silence_duration=34.2795
frame:5991 pts:24539136 pts_time:511.232
lavfi.silence_start=510.764
frame:6188 pts:25346048 pts_time:528.043
lavfi.silence_end=528.123
lavfi.silence_duration=17.3591
frame:6197 pts:25382912 pts_time:528.811
lavfi.silence_start=528.385
frame:6205 pts:25415680 pts_time:529.493
lavfi.silence_end=529.523
lavfi.silence_duration=1.13821
frame:6253 pts:25612288 pts_time:533.589
lavfi.silence_start=533.104
frame:6272 pts:25690112 pts_time:535.211
lavfi.silence_end=535.226
lavfi.silence_duration=2.12158
frame:6283 pts:25735168 pts_time:536.149
lavfi.silence_start=535.664
frame:6295 pts:25784320 pts_time:537.173
lavfi.silence_end=537.219
lavfi.silence_duration=1.55483
frame:6337 pts:25956352 pts_time:540.757
lavfi.silence_start=540.303
frame:6343 pts:25980928 pts_time:541.269
lavfi.silence_end=541.304
lavfi.silence_duration=1.00048
frame:6353 pts:26021888 pts_time:542.123
lavfi.silence_start=541.644
frame:6359 pts:26046464 pts_time:542.635
lavfi.silence_end=542.704
lavfi.silence_duration=1.0595
frame:6381 pts:26136576 pts_time:544.512
lavfi.silence_start=544.064
frame:6382 pts:26140672 pts_time:544.597
lavfi.silence_end=544.603
lavfi.silence_duration=0.539438
frame:6394 pts:26189824 pts_time:545.621
lavfi.silence_start=545.185
frame:6407 pts:26243072 pts_time:546.731
lavfi.silence_end=546.743
lavfi.silence_duration=1.55831
frame:6440 pts:26378240 pts_time:549.547
lavfi.silence_start=549.104
frame:6461 pts:26464256 pts_time:551.339
lavfi.silence_end=551.343
lavfi.silence_duration=2.2394
frame:6482 pts:26550272 pts_time:553.131
lavfi.silence_start=552.684
frame:6495 pts:26603520 pts_time:554.24
lavfi.silence_end=554.263
lavfi.silence_duration=1.57869
frame:6544 pts:26804224 pts_time:558.421
lavfi.silence_start=557.925
frame:6546 pts:26812416 pts_time:558.592
lavfi.silence_end=558.663
lavfi.silence_duration=0.738375
frame:6566 pts:26894336 pts_time:560.299
lavfi.silence_start=559.804
frame:6569 pts:26906624 pts_time:560.555
lavfi.silence_end=560.623
lavfi.silence_duration=0.819354
frame:6587 pts:26980352 pts_time:562.091
lavfi.silence_start=561.664
frame:6592 pts:27000832 pts_time:562.517
lavfi.silence_end=562.564
lavfi.silence_duration=0.899875
frame:6609 pts:27070464 pts_time:563.968
lavfi.silence_start=563.504
frame:6669 pts:27316224 pts_time:569.088
lavfi.silence_end=569.103
lavfi.silence_duration=5.59912
frame:6678 pts:27353088 pts_time:569.856
lavfi.silence_start=569.364
frame:6686 pts:27385856 pts_time:570.539
lavfi.silence_end=570.563
lavfi.silence_duration=1.19915
frame:6716 pts:27508736 pts_time:573.099
lavfi.silence_start=572.679
frame:6717 pts:27512832 pts_time:573.184
lavfi.silence_end=573.224
lavfi.silence_duration=0.54525
frame:6742 pts:27615232 pts_time:575.317
lavfi.silence_start=574.864
frame:6760 pts:27688960 pts_time:576.853
lavfi.silence_end=576.883
lavfi.silence_duration=2.01917
frame:6773 pts:27742208 pts_time:577.963
lavfi.silence_start=577.465
frame:6779 pts:27766784 pts_time:578.475
lavfi.silence_end=578.484
lavfi.silence_duration=1.0194
frame:6801 pts:27856896 pts_time:580.352
lavfi.silence_start=579.864
frame:6810 pts:27893760 pts_time:581.12
lavfi.silence_end=581.123
lavfi.silence_duration=1.25913
frame:6826 pts:27959296 pts_time:582.485
lavfi.silence_start=582.044
frame:6831 pts:27979776 pts_time:582.912
lavfi.silence_end=582.943
lavfi.silence_duration=0.899083
frame:6842 pts:28024832 pts_time:583.851
lavfi.silence_start=583.364
frame:6882 pts:28188672 pts_time:587.264
lavfi.silence_end=587.303
lavfi.silence_duration=3.9394
frame:6896 pts:28246016 pts_time:588.459
lavfi.silence_start=588.004
frame:6906 pts:28286976 pts_time:589.312
lavfi.silence_end=589.37
lavfi.silence_duration=1.36583
frame:6951 pts:28471296 pts_time:593.152
lavfi.silence_start=592.703
frame:6958 pts:28499968 pts_time:593.749
lavfi.silence_end=593.802
lavfi.silence_duration=1.09912
frame:6992 pts:28639232 pts_time:596.651
lavfi.silence_start=596.223
frame:7003 pts:28684288 pts_time:597.589
lavfi.silence_end=597.622
lavfi.silence_duration=1.39912
frame:7051 pts:28880896 pts_time:601.685
lavfi.silence_start=601.263
frame:7052 pts:28884992 pts_time:601.771
lavfi.silence_end=601.824
lavfi.silence_duration=0.561
frame:7062 pts:28925952 pts_time:602.624
lavfi.silence_start=602.143
frame:7095 pts:29061120 pts_time:605.44
lavfi.silence_end=605.522
lavfi.silence_duration=3.37896
frame:7105 pts:29102080 pts_time:606.293
lavfi.silence_start=605.843
frame:7162 pts:29335552 pts_time:611.157
lavfi.silence_end=611.242
lavfi.silence_duration=5.39935
frame:7174 pts:29384704 pts_time:612.181
lavfi.silence_start=611.683
frame:7353 pts:30117888 pts_time:627.456
lavfi.silence_end=627.462
lavfi.silence_duration=15.7795
frame:7361 pts:30150656 pts_time:628.139
lavfi.silence_start=627.703
frame:7471 pts:30601216 pts_time:637.525
lavfi.silence_end=637.562
lavfi.silence_duration=9.85871
frame:7502 pts:30728192 pts_time:640.171
lavfi.silence_start=639.703
frame:7784 pts:31883264 pts_time:664.235
lavfi.silence_end=664.301
lavfi.silence_duration=24.5986
frame:7793 pts:31920128 pts_time:665.003
lavfi.silence_start=664.543
frame:8042 pts:32940032 pts_time:686.251
lavfi.silence_end=686.281
lavfi.silence_duration=21.7383
frame:8060 pts:33013760 pts_time:687.787
lavfi.silence_start=687.343
frame:8181 pts:33509376 pts_time:698.112
lavfi.silence_end=698.122
lavfi.silence_duration=10.7796
frame:8264 pts:33849344 pts_time:705.195
lavfi.silence_start=704.722
frame:8605 pts:35246080 pts_time:734.293
lavfi.silence_end=734.301
lavfi.silence_duration=29.5791
frame:8615 pts:35287040 pts_time:735.147
lavfi.silence_start=734.683
frame:8645 pts:35409920 pts_time:737.707
lavfi.silence_end=737.762
lavfi.silence_duration=3.07896
frame:8697 pts:35622912 pts_time:742.144
lavfi.silence_start=741.723
frame:8725 pts:35737600 pts_time:744.533
lavfi.silence_end=744.542
lavfi.silence_duration=2.81927
frame:8750 pts:35840000 pts_time:746.667
lavfi.silence_start=746.223
frame:8792 pts:36012032 pts_time:750.251
lavfi.silence_end=750.282
lavfi.silence_duration=4.05896
frame:8810 pts:36085760 pts_time:751.787
lavfi.silence_start=751.303
frame:8815 pts:36106240 pts_time:752.213
lavfi.silence_end=752.262
lavfi.silence_duration=0.959542
frame:8838 pts:36200448 pts_time:754.176
lavfi.silence_start=753.703
frame:8870 pts:36331520 pts_time:756.907
lavfi.silence_end=756.922
lavfi.silence_duration=3.2189
frame:8903 pts:36466688 pts_time:759.723
lavfi.silence_start=759.283
frame:8918 pts:36528128 pts_time:761.003
lavfi.silence_end=761.062
lavfi.silence_duration=1.779
frame:8986 pts:36806656 pts_time:766.805
lavfi.silence_start=766.323
frame:9028 pts:36978688 pts_time:770.389
lavfi.silence_end=770.442
lavfi.silence_duration=4.11892
frame:9102 pts:37281792 pts_time:776.704
lavfi.silence_start=776.283
frame:9107 pts:37302272 pts_time:777.131
lavfi.silence_end=777.197
lavfi.silence_duration=0.913979
frame:9140 pts:37437440 pts_time:779.947
lavfi.silence_start=779.483
frame:9182 pts:37609472 pts_time:783.531
lavfi.silence_end=783.542
lavfi.silence_duration=4.0589
frame:9206 pts:37707776 pts_time:785.579
lavfi.silence_start=785.163
frame:9224 pts:37781504 pts_time:787.115
lavfi.silence_end=787.183
lavfi.silence_duration=2.01981
frame:9282 pts:38019072 pts_time:792.064
lavfi.silence_start=791.642
frame:9289 pts:38047744 pts_time:792.661
lavfi.silence_end=792.664
lavfi.silence_duration=1.02187
frame:9337 pts:38244352 pts_time:796.757
lavfi.silence_start=796.323
frame:9348 pts:38289408 pts_time:797.696
lavfi.silence_end=797.718
lavfi.silence_duration=1.39512
frame:9431 pts:38629376 pts_time:804.779
lavfi.silence_start=804.342
frame:9432 pts:38633472 pts_time:804.864
lavfi.silence_end=804.882
lavfi.silence_duration=0.539833
frame:9495 pts:38891520 pts_time:810.24
lavfi.silence_start=809.778
frame:9497 pts:38899712 pts_time:810.411
lavfi.silence_end=810.482
lavfi.silence_duration=0.704458
frame:9661 pts:39571456 pts_time:824.405
lavfi.silence_start=823.962
frame:9671 pts:39612416 pts_time:825.259
lavfi.silence_end=825.303
lavfi.silence_duration=1.34056
frame:9720 pts:39813120 pts_time:829.44
lavfi.silence_start=828.982
frame:9722 pts:39821312 pts_time:829.611
lavfi.silence_end=829.624
lavfi.silence_duration=0.641562
frame:9759 pts:39972864 pts_time:832.768
lavfi.silence_start=832.323
frame:9770 pts:40017920 pts_time:833.707
lavfi.silence_end=833.763
lavfi.silence_duration=1.43933
frame:9850 pts:40345600 pts_time:840.533
lavfi.silence_start=840.043
frame:9877 pts:40456192 pts_time:842.837
lavfi.silence_end=842.868
lavfi.silence_duration=2.82473
frame:9925 pts:40652800 pts_time:846.933
lavfi.silence_start=846.502
frame:9937 pts:40701952 pts_time:847.957
lavfi.silence_end=847.998
lavfi.silence_duration=1.49531
frame:9965 pts:40816640 pts_time:850.347
lavfi.silence_start=849.883
frame:9978 pts:40869888 pts_time:851.456
lavfi.silence_end=851.522
lavfi.silence_duration=1.63896
frame:10022 pts:41050112 pts_time:855.211
lavfi.silence_start=854.743
frame:10056 pts:41189376 pts_time:858.112
lavfi.silence_end=858.182
lavfi.silence_duration=3.43902
frame:10067 pts:41234432 pts_time:859.051
lavfi.silence_start=858.563
frame:10108 pts:41402368 pts_time:862.549
lavfi.silence_end=862.578
lavfi.silence_duration=4.01473
frame:10186 pts:41721856 pts_time:869.205
lavfi.silence_start=868.759
frame:10250 pts:41984000 pts_time:874.667
lavfi.silence_end=874.682
lavfi.silence_duration=5.92319
frame:10285 pts:42127360 pts_time:877.653
lavfi.silence_start=877.183
frame:10309 pts:42225664 pts_time:879.701
lavfi.silence_end=879.716
lavfi.silence_duration=2.53283
frame:10328 pts:42303488 pts_time:881.323
lavfi.silence_start=880.841
frame:10529 pts:43126784 pts_time:898.475
lavfi.silence_end=898.48
lavfi.silence_duration=17.6384
frame:10538 pts:43163648 pts_time:899.243
lavfi.silence_start=898.781
frame:10567 pts:43282432 pts_time:901.717
lavfi.silence_end=901.722
lavfi.silence_duration=2.94065
frame:10581 pts:43339776 pts_time:902.912
lavfi.silence_start=902.48
frame:10598 pts:43409408 pts_time:904.363
lavfi.silence_end=904.42
lavfi.silence_duration=1.94012
frame:10609 pts:43454464 pts_time:905.301
lavfi.silence_start=904.842
frame:10657 pts:43651072 pts_time:909.397
lavfi.silence_end=909.461
lavfi.silence_duration=4.61923
frame:10696 pts:43810816 pts_time:912.725
lavfi.silence_start=912.26
frame:10704 pts:43843584 pts_time:913.408
lavfi.silence_end=913.48
lavfi.silence_duration=1.22023
frame:10774 pts:44130304 pts_time:919.381
lavfi.silence_start=918.896
frame:10777 pts:44142592 pts_time:919.637
lavfi.silence_end=919.66
lavfi.silence_duration=0.764167
frame:10793 pts:44208128 pts_time:921.003
lavfi.silence_start=920.516
frame:10798 pts:44228608 pts_time:921.429
lavfi.silence_end=921.48
lavfi.silence_duration=0.964292
frame:10932 pts:44777472 pts_time:932.864
lavfi.silence_start=932.401
frame:10946 pts:44834816 pts_time:934.059
lavfi.silence_end=934.081
lavfi.silence_duration=1.67967
frame:11015 pts:45117440 pts_time:939.947
lavfi.silence_start=939.452
frame:11019 pts:45133824 pts_time:940.288
lavfi.silence_end=940.36
lavfi.silence_duration=0.908729
frame:11046 pts:45244416 pts_time:942.592
lavfi.silence_start=942.141
frame:11049 pts:45256704 pts_time:942.848
lavfi.silence_end=942.916
lavfi.silence_duration=0.774729
frame:11126 pts:45572096 pts_time:949.419
lavfi.silence_start=948.94
frame:11138 pts:45621248 pts_time:950.443
lavfi.silence_end=950.48
lavfi.silence_duration=1.53954
frame:11148 pts:45662208 pts_time:951.296
lavfi.silence_start=950.821
frame:11169 pts:45748224 pts_time:953.088
lavfi.silence_end=953.16
lavfi.silence_duration=2.339
frame:11220 pts:45957120 pts_time:957.44
lavfi.silence_start=956.941
frame:11224 pts:45973504 pts_time:957.781
lavfi.silence_end=957.82
lavfi.silence_duration=0.87925
frame:11257 pts:46108672 pts_time:960.597
lavfi.silence_start=960.161
frame:11298 pts:46276608 pts_time:964.096
lavfi.silence_end=964.1
lavfi.silence_duration=3.93908
frame:11341 pts:46452736 pts_time:967.765
lavfi.silence_start=967.348
frame:11348 pts:46481408 pts_time:968.363
lavfi.silence_end=968.4
lavfi.silence_duration=1.05206
frame:11360 pts:46530560 pts_time:969.387
lavfi.silence_start=968.941
frame:11369 pts:46567424 pts_time:970.155
lavfi.silence_end=970.16
lavfi.silence_duration=1.21927
frame:11389 pts:46649344 pts_time:971.861
lavfi.silence_start=971.422
frame:11485 pts:47042560 pts_time:980.053
lavfi.silence_end=980.08
lavfi.silence_duration=8.65858
frame:11494 pts:47079424 pts_time:980.821
lavfi.silence_start=980.381
frame:11576 pts:47415296 pts_time:987.819
lavfi.silence_end=987.879
lavfi.silence_duration=7.49779
frame:11585 pts:47452160 pts_time:988.587
lavfi.silence_start=988.12
frame:11598 pts:47505408 pts_time:989.696
lavfi.silence_end=989.759
lavfi.silence_duration=1.63883
frame:11642 pts:47685632 pts_time:993.451
lavfi.silence_start=992.98
frame:11702 pts:47931392 pts_time:998.571
lavfi.silence_end=998.619
lavfi.silence_duration=5.63946
frame:11750 pts:48128000 pts_time:1002.67
lavfi.silence_start=1002.18
frame:11790 pts:48291840 pts_time:1006.08
lavfi.silence_end=1006.14
lavfi.silence_duration=3.95998
frame:11800 pts:48332800 pts_time:1006.93
lavfi.silence_start=1006.44
frame:11827 pts:48443392 pts_time:1009.24
lavfi.silence_end=1009.32
lavfi.silence_duration=2.8795
frame:11933 pts:48877568 pts_time:1018.28
lavfi.silence_start=1017.8
frame:11969 pts:49025024 pts_time:1021.35
lavfi.silence_end=1021.44
lavfi.silence_duration=3.63935
frame:12017 pts:49221632 pts_time:1025.45
lavfi.silence_start=1025
frame:12075 pts:49459200 pts_time:1030.4
lavfi.silence_end=1030.47
lavfi.silence_duration=5.47427
frame:12114 pts:49618944 pts_time:1033.73
lavfi.silence_start=1033.3
frame:12155 pts:49786880 pts_time:1037.23
lavfi.silence_end=1037.31
lavfi.silence_duration=4.0074
frame:12183 pts:49901568 pts_time:1039.62
lavfi.silence_start=1039.16
frame:12194 pts:49946624 pts_time:1040.55
lavfi.silence_end=1040.62
lavfi.silence_duration=1.45948
frame:12216 pts:50036736 pts_time:1042.43
lavfi.silence_start=1041.94
frame:12226 pts:50077696 pts_time:1043.29
lavfi.silence_end=1043.3
lavfi.silence_duration=1.35879
frame:12235 pts:50114560 pts_time:1044.05
lavfi.silence_start=1043.56
frame:12286 pts:50323456 pts_time:1048.41
lavfi.silence_end=1048.48
lavfi.silence_duration=4.91869
frame:12317 pts:50450432 pts_time:1051.05
lavfi.silence_start=1050.6
frame:12322 pts:50470912 pts_time:1051.48
lavfi.silence_end=1051.54
lavfi.silence_duration=0.939354
frame:12374 pts:50683904 pts_time:1055.91
lavfi.silence_start=1055.42
frame:12440 pts:50954240 pts_time:1061.55
lavfi.silence_end=1061.6
lavfi.silence_duration=6.17879
frame:12449 pts:50991104 pts_time:1062.31
lavfi.silence_start=1061.86
frame:12699 pts:52015104 pts_time:1083.65
lavfi.silence_end=1083.72
lavfi.silence_duration=21.8584
frame:12718 pts:52092928 pts_time:1085.27
lavfi.silence_start=1084.84
frame:12735 pts:52162560 pts_time:1086.72
lavfi.silence_end=1086.8
lavfi.silence_duration=1.96029
frame:12797 pts:52416512 pts_time:1092.01
lavfi.silence_start=1091.58
frame:12806 pts:52453376 pts_time:1092.78
lavfi.silence_end=1092.86
lavfi.silence_duration=1.27969
frame:12817 pts:52498432 pts_time:1093.72
lavfi.silence_start=1093.22
frame:12929 pts:52957184 pts_time:1103.27
lavfi.silence_end=1103.34
lavfi.silence_duration=10.1188
frame:12957 pts:53071872 pts_time:1105.66
lavfi.silence_start=1105.18
frame:12980 pts:53166080 pts_time:1107.63
lavfi.silence_end=1107.64
lavfi.silence_duration=2.45962
frame:12990 pts:53207040 pts_time:1108.48
lavfi.silence_start=1107.98
frame:13027 pts:53358592 pts_time:1111.64
lavfi.silence_end=1111.64
lavfi.silence_duration=3.65837
frame:13044 pts:53428224 pts_time:1113.09
lavfi.silence_start=1112.64
frame:13692 pts:56082432 pts_time:1168.38
lavfi.silence_end=1168.42
lavfi.silence_duration=55.7809
frame:13701 pts:56119296 pts_time:1169.15
lavfi.silence_start=1168.7
frame:13713 pts:56168448 pts_time:1170.18
lavfi.silence_end=1170.2
lavfi.silence_duration=1.49821
frame:13765 pts:56381440 pts_time:1174.61
lavfi.silence_start=1174.12
frame:13875 pts:56832000 pts_time:1184
lavfi.silence_end=1184.06
lavfi.silence_duration=9.93833
frame:13916 pts:56999936 pts_time:1187.5
lavfi.silence_start=1187
frame:13929 pts:57053184 pts_time:1188.61
lavfi.silence_end=1188.68
lavfi.silence_duration=1.67894
frame:13938 pts:57090048 pts_time:1189.38
lavfi.silence_start=1188.9
frame:13953 pts:57151488 pts_time:1190.66
lavfi.silence_end=1190.68
lavfi.silence_duration=1.7786
frame:13962 pts:57188352 pts_time:1191.42
lavfi.silence_start=1191
frame:14269 pts:58445824 pts_time:1217.62
lavfi.silence_end=1217.64
lavfi.silence_duration=26.6393
frame:14327 pts:58683392 pts_time:1222.57
lavfi.silence_start=1222.08
frame:14366 pts:58843136 pts_time:1225.9
lavfi.silence_end=1225.92
lavfi.silence_duration=3.83894
frame:14412 pts:59031552 pts_time:1229.82
lavfi.silence_start=1229.38
frame:14424 pts:59080704 pts_time:1230.85
lavfi.silence_end=1230.9
lavfi.silence_duration=1.51942
frame:14451 pts:59191296 pts_time:1233.15
lavfi.silence_start=1232.71
frame:14490 pts:59351040 pts_time:1236.48
lavfi.silence_end=1236.56
lavfi.silence_duration=3.84406
frame:14500 pts:59392000 pts_time:1237.33
lavfi.silence_start=1236.84
frame:14502 pts:59400192 pts_time:1237.5
lavfi.silence_end=1237.54
lavfi.silence_duration=0.698583
frame:14542 pts:59564032 pts_time:1240.92
lavfi.silence_start=1240.48
frame:14561 pts:59641856 pts_time:1242.54
lavfi.silence_end=1242.6
lavfi.silence_duration=2.12165
frame:14623 pts:59895808 pts_time:1247.83
lavfi.silence_start=1247.38
frame:14652 pts:60014592 pts_time:1250.3
lavfi.silence_end=1250.37
lavfi.silence_duration=2.99675
frame:14761 pts:60461056 pts_time:1259.61
lavfi.silence_start=1259.17
frame:14765 pts:60477440 pts_time:1259.95
lavfi.silence_end=1259.96
lavfi.silence_duration=0.784875
frame:14803 pts:60633088 pts_time:1263.19
lavfi.silence_start=1262.76
frame:14842 pts:60792832 pts_time:1266.52
lavfi.silence_end=1266.52
lavfi.silence_duration=3.75944
frame:14855 pts:60846080 pts_time:1267.63
lavfi.silence_start=1267.2
frame:14925 pts:61132800 pts_time:1273.6
lavfi.silence_end=1273.64
lavfi.silence_duration=6.43869
frame:14935 pts:61173760 pts_time:1274.45
lavfi.silence_start=1273.96
frame:15226 pts:62365696 pts_time:1299.29
lavfi.silence_end=1299.36
lavfi.silence_duration=25.3986
frame:15267 pts:62533632 pts_time:1302.78
lavfi.silence_start=1302.36
frame:15285 pts:62607360 pts_time:1304.32
lavfi.silence_end=1304.36
lavfi.silence_duration=1.99944
frame:15298 pts:62660608 pts_time:1305.43
lavfi.silence_start=1304.95
frame:15469 pts:63361024 pts_time:1320.02
lavfi.silence_end=1320.08
lavfi.silence_duration=15.1238
frame:15478 pts:63397888 pts_time:1320.79
lavfi.silence_start=1320.32
frame:15551 pts:63696896 pts_time:1327.02
lavfi.silence_end=1327.04
lavfi.silence_duration=6.71833
frame:15572 pts:63782912 pts_time:1328.81
lavfi.silence_start=1328.36
frame:15580 pts:63815680 pts_time:1329.49
lavfi.silence_end=1329.54
lavfi.silence_duration=1.17906
frame:15596 pts:63881216 pts_time:1330.86
lavfi.silence_start=1330.42
frame:15893 pts:65097728 pts_time:1356.2
lavfi.silence_end=1356.24
lavfi.silence_duration=25.8188
frame:15970 pts:65413120 pts_time:1362.77
lavfi.silence_start=1362.29
frame:16164 pts:66207744 pts_time:1379.33
lavfi.silence_end=1379.4
lavfi.silence_duration=17.1039
frame:16173 pts:66244608 pts_time:1380.1
lavfi.silence_start=1379.66
frame:16201 pts:66359296 pts_time:1382.49
lavfi.silence_end=1382.56
lavfi.silence_duration=2.89865
frame:16229 pts:66473984 pts_time:1384.87
lavfi.silence_start=1384.4
lavfi.silence_end=1384.94
lavfi.silence_duration=0.539937
frame:16253 pts:66572288 pts_time:1386.92
lavfi.silence_start=1386.48
frame:16262 pts:66609152 pts_time:1387.69
lavfi.silence_end=1387.74
lavfi.silence_duration=1.26252
frame:16277 pts:66670592 pts_time:1388.97
lavfi.silence_start=1388.48
frame:16371 pts:67055616 pts_time:1396.99
lavfi.silence_end=1397.01
lavfi.silence_duration=8.53469
frame:16391 pts:67137536 pts_time:1398.7
lavfi.silence_start=1398.25
frame:16392 pts:67141632 pts_time:1398.78
lavfi.silence_end=1398.8
lavfi.silence_duration=0.544813
frame:16431 pts:67301376 pts_time:1402.11
lavfi.silence_start=1401.62
frame:16482 pts:67510272 pts_time:1406.46
lavfi.silence_end=1406.54
lavfi.silence_duration=4.92106
frame:16543 pts:67760128 pts_time:1411.67
lavfi.silence_start=1411.2
frame:16552 pts:67796992 pts_time:1412.44
lavfi.silence_end=1412.45
lavfi.silence_duration=1.25279
frame:16657 pts:68227072 pts_time:1421.4
lavfi.silence_start=1420.9
frame:16661 pts:68243456 pts_time:1421.74
lavfi.silence_end=1421.74
lavfi.silence_duration=0.841625
frame:16683 pts:68333568 pts_time:1423.62
lavfi.silence_start=1423.12
frame:16761 pts:68653056 pts_time:1430.27
lavfi.silence_end=1430.34
lavfi.silence_duration=7.2184
frame:16781 pts:68734976 pts_time:1431.98
lavfi.silence_start=1431.48
frame:16904 pts:69238784 pts_time:1442.47
lavfi.silence_end=1442.5
lavfi.silence_duration=11.0189
frame:16924 pts:69320704 pts_time:1444.18
lavfi.silence_start=1443.7
frame:16929 pts:69341184 pts_time:1444.61
lavfi.silence_end=1444.64
lavfi.silence_duration=0.943167
frame:16954 pts:69443584 pts_time:1446.74
lavfi.silence_start=1446.26
frame:16955 pts:69447680 pts_time:1446.83
lavfi.silence_end=1446.84
lavfi.silence_duration=0.578854
frame:17004 pts:69648384 pts_time:1451.01
lavfi.silence_start=1450.56
frame:17033 pts:69767168 pts_time:1453.48
lavfi.silence_end=1453.52
lavfi.silence_duration=2.96204
frame:17090 pts:70000640 pts_time:1458.35
lavfi.silence_start=1457.92
frame:17228 pts:70565888 pts_time:1470.12
lavfi.silence_end=1470.14
lavfi.silence_duration=12.2206
frame:17238 pts:70606848 pts_time:1470.98
lavfi.silence_start=1470.5
frame:17350 pts:71065600 pts_time:1480.53
lavfi.silence_end=1480.58
lavfi.silence_duration=10.0792
frame:17376 pts:71172096 pts_time:1482.75
lavfi.silence_start=1482.32
frame:17562 pts:71933952 pts_time:1498.62
lavfi.silence_end=1498.68
lavfi.silence_duration=16.359
frame:17624 pts:72187904 pts_time:1503.91
lavfi.silence_start=1503.45
frame:17787 pts:72855552 pts_time:1517.82
lavfi.silence_end=1517.9
lavfi.silence_duration=14.4447
frame:17807 pts:72937472 pts_time:1519.53
lavfi.silence_start=1519.06
frame:17867 pts:73183232 pts_time:1524.65
lavfi.silence_end=1524.68
lavfi.silence_duration=5.6214
frame:17897 pts:73306112 pts_time:1527.21
lavfi.silence_start=1526.76
frame:18051 pts:73936896 pts_time:1540.35
lavfi.silence_end=1540.38
lavfi.silence_duration=13.6197
frame:18070 pts:74014720 pts_time:1541.97
lavfi.silence_start=1541.52
frame:18072 pts:74022912 pts_time:1542.14
lavfi.silence_end=1542.14
lavfi.silence_duration=0.627167
frame:18120 pts:74219520 pts_time:1546.24
lavfi.silence_start=1545.8
frame:18138 pts:74293248 pts_time:1547.78
lavfi.silence_end=1547.82
lavfi.silence_duration=2.01887
frame:18164 pts:74399744 pts_time:1549.99
lavfi.silence_start=1549.54
frame:18250 pts:74752000 pts_time:1557.33
lavfi.silence_end=1557.4
lavfi.silence_duration=7.85971
frame:18362 pts:75210752 pts_time:1566.89
lavfi.silence_start=1566.46
frame:18414 pts:75423744 pts_time:1571.33
lavfi.silence_end=1571.41
lavfi.silence_duration=4.95531
frame:18456 pts:75595776 pts_time:1574.91
lavfi.silence_start=1574.44
frame:20772 pts:85082112 pts_time:1772.54
lavfi.silence_end=1772.56
lavfi.silence_duration=198.127
frame:20799 pts:85192704 pts_time:1774.85
lavfi.silence_start=1774.42
frame:20923 pts:85700608 pts_time:1785.43
lavfi.silence_end=1785.48
lavfi.silence_duration=11.0588
frame:21010 pts:86056960 pts_time:1792.85
lavfi.silence_start=1792.44
frame:21013 pts:86069248 pts_time:1793.11
lavfi.silence_end=1793.13
lavfi.silence_duration=0.695208
frame:21024 pts:86114304 pts_time:1794.05
lavfi.silence_start=1793.6
frame:21043 pts:86192128 pts_time:1795.67
lavfi.silence_end=1795.75
lavfi.silence_duration=2.15475
frame:21086 pts:86368256 pts_time:1799.34
lavfi.silence_start=1798.88
lavfi.silence_end=1799.39
lavfi.silence_duration=0.515271
frame:21120 pts:86507520 pts_time:1802.24
lavfi.silence_start=1801.81
frame:21204 pts:86851584 pts_time:1809.41
lavfi.silence_end=1809.42
lavfi.silence_duration=7.60598
frame:21213 pts:86888448 pts_time:1810.18
lavfi.silence_start=1809.68
frame:21239 pts:86994944 pts_time:1812.39
lavfi.silence_end=1812.46
lavfi.silence_duration=2.77942
frame:21265 pts:87101440 pts_time:1814.61
lavfi.silence_start=1814.16
frame:21266 pts:87105536 pts_time:1814.7
lavfi.silence_end=1814.72
lavfi.silence_duration=0.558854
frame:21288 pts:87195648 pts_time:1816.58
lavfi.silence_start=1816.1
frame:21324 pts:87343104 pts_time:1819.65
lavfi.silence_end=1819.68
lavfi.silence_duration=3.579
frame:21366 pts:87515136 pts_time:1823.23
lavfi.silence_start=1822.8
frame:21415 pts:87715840 pts_time:1827.41
lavfi.silence_end=1827.42
lavfi.silence_duration=4.6189
frame:21424 pts:87752704 pts_time:1828.18
lavfi.silence_start=1827.72
frame:21427 pts:87764992 pts_time:1828.44
lavfi.silence_end=1828.5
lavfi.silence_duration=0.778021
frame:21436 pts:87801856 pts_time:1829.21
lavfi.silence_start=1828.74
frame:21439 pts:87814144 pts_time:1829.46
lavfi.silence_end=1829.54
lavfi.silence_duration=0.798708
frame:21470 pts:87941120 pts_time:1832.11
lavfi.silence_start=1831.68
frame:21500 pts:88064000 pts_time:1834.67
lavfi.silence_end=1834.72
lavfi.silence_duration=3.03927
frame:21530 pts:88186880 pts_time:1837.23
lavfi.silence_start=1836.76
frame:21549 pts:88264704 pts_time:1838.85
lavfi.silence_end=1838.92
lavfi.silence_duration=2.15881
frame:21614 pts:88530944 pts_time:1844.39
lavfi.silence_start=1843.98
frame:21619 pts:88551424 pts_time:1844.82
lavfi.silence_end=1844.84
lavfi.silence_duration=0.858896
frame:21654 pts:88694784 pts_time:1847.81
lavfi.silence_start=1847.31
frame:21674 pts:88776704 pts_time:1849.51
lavfi.silence_end=1849.54
lavfi.silence_duration=2.22475
frame:21693 pts:88854528 pts_time:1851.14
lavfi.silence_start=1850.64
frame:21711 pts:88928256 pts_time:1852.67
lavfi.silence_end=1852.7
lavfi.silence_duration=2.0585
frame:21726 pts:88989696 pts_time:1853.95
lavfi.silence_start=1853.46
frame:21731 pts:89010176 pts_time:1854.38
lavfi.silence_end=1854.4
lavfi.silence_duration=0.941396
frame:21748 pts:89079808 pts_time:1855.83
lavfi.silence_start=1855.35
frame:21771 pts:89174016 pts_time:1857.79
lavfi.silence_end=1857.88
lavfi.silence_duration=2.52196
frame:21799 pts:89288704 pts_time:1860.18
lavfi.silence_start=1859.7
frame:21852 pts:89505792 pts_time:1864.7
lavfi.silence_end=1864.74
lavfi.silence_duration=5.04448
frame:21873 pts:89591808 pts_time:1866.5
lavfi.silence_start=1866.04
frame:21963 pts:89960448 pts_time:1874.18
lavfi.silence_end=1874.24
lavfi.silence_duration=8.19865
frame:21972 pts:89997312 pts_time:1874.94
lavfi.silence_start=1874.52
frame:22122 pts:90611712 pts_time:1887.74
lavfi.silence_end=1887.78
lavfi.silence_duration=13.2579
frame:22207 pts:90959872 pts_time:1895
lavfi.silence_start=1894.57
frame:22255 pts:91156480 pts_time:1899.09
lavfi.silence_end=1899.18
lavfi.silence_duration=4.60612
frame:22270 pts:91217920 pts_time:1900.37
lavfi.silence_start=1899.96
frame:22272 pts:91226112 pts_time:1900.54
lavfi.silence_end=1900.58
lavfi.silence_duration=0.619479
frame:22339 pts:91500544 pts_time:1906.26
lavfi.silence_start=1905.77
frame:22770 pts:93265920 pts_time:1943.04
lavfi.silence_end=1943.08
lavfi.silence_duration=37.3037
frame:22808 pts:93421568 pts_time:1946.28
lavfi.silence_start=1945.82
frame:22863 pts:93646848 pts_time:1950.98
lavfi.silence_end=1951
lavfi.silence_duration=5.18365
frame:22903 pts:93810688 pts_time:1954.39
lavfi.silence_start=1953.89
frame:22983 pts:94138368 pts_time:1961.22
lavfi.silence_end=1961.27
lavfi.silence_duration=7.37875
frame:23043 pts:94384128 pts_time:1966.34
lavfi.silence_start=1965.89
frame:23113 pts:94670848 pts_time:1972.31
lavfi.silence_end=1972.31
lavfi.silence_duration=6.41975
frame:23124 pts:94715904 pts_time:1973.25
lavfi.silence_start=1972.79
frame:23153 pts:94834688 pts_time:1975.72
lavfi.silence_end=1975.79
lavfi.silence_duration=3.00083
frame:23187 pts:94973952 pts_time:1978.62
lavfi.silence_start=1978.17
frame:23241 pts:95195136 pts_time:1983.23
lavfi.silence_end=1983.29
lavfi.silence_duration=5.11992
frame:23259 pts:95268864 pts_time:1984.77
lavfi.silence_start=1984.35
frame:23319 pts:95514624 pts_time:1989.89
lavfi.silence_end=1989.97
lavfi.silence_duration=5.61904
frame:23338 pts:95592448 pts_time:1991.51
lavfi.silence_start=1991.03
frame:23367 pts:95711232 pts_time:1993.98
lavfi.silence_end=1994.01
lavfi.silence_duration=2.97867
frame:23376 pts:95748096 pts_time:1994.75
lavfi.silence_start=1994.33
frame:23383 pts:95776768 pts_time:1995.35
lavfi.silence_end=1995.35
lavfi.silence_duration=1.01823
frame:23446 pts:96034816 pts_time:2000.73
lavfi.silence_start=2000.31
frame:23467 pts:96120832 pts_time:2002.52
lavfi.silence_end=2002.6
lavfi.silence_duration=2.28931
frame:23491 pts:96219136 pts_time:2004.57
lavfi.silence_start=2004.13
frame:23534 pts:96395264 pts_time:2008.23
lavfi.silence_end=2008.25
lavfi.silence_duration=4.11469
frame:23546 pts:96444416 pts_time:2009.26
lavfi.silence_start=2008.81
frame:23588 pts:96616448 pts_time:2012.84
lavfi.silence_end=2012.9
lavfi.silence_duration=4.09075
frame:23603 pts:96677888 pts_time:2014.12
lavfi.silence_start=2013.65
frame:25889 pts:106041344 pts_time:2209.19
lavfi.silence_end=2209.23
lavfi.silence_duration=195.578
frame:25900 pts:106086400 pts_time:2210.13
lavfi.silence_start=2209.67
frame:25931 pts:106213376 pts_time:2212.78
lavfi.silence_end=2212.81
lavfi.silence_duration=3.13798
frame:25953 pts:106303488 pts_time:2214.66
lavfi.silence_start=2214.21
frame:25986 pts:106438656 pts_time:2217.47
lavfi.silence_end=2217.51
lavfi.silence_duration=3.29998
frame:26035 pts:106639360 pts_time:2221.65
lavfi.silence_start=2221.17
frame:26143 pts:107081728 pts_time:2230.87
lavfi.silence_end=2230.89
lavfi.silence_duration=9.71994
frame:26160 pts:107151360 pts_time:2232.32
lavfi.silence_start=2231.83
frame:26235 pts:107458560 pts_time:2238.72
lavfi.silence_end=2238.79
lavfi.silence_duration=6.95912
frame:26252 pts:107528192 pts_time:2240.17
lavfi.silence_start=2239.71
frame:26264 pts:107577344 pts_time:2241.19
lavfi.silence_end=2241.28
lavfi.silence_duration=1.56527
frame:26520 pts:108625920 pts_time:2263.04
lavfi.silence_start=2262.57
frame:26616 pts:109019136 pts_time:2271.23
lavfi.silence_end=2271.23
lavfi.silence_duration=8.65888
frame:26624 pts:109051904 pts_time:2271.91
lavfi.silence_start=2271.49
frame:27048 pts:110788608 pts_time:2308.1
lavfi.silence_end=2308.11
lavfi.silence_duration=36.618
frame:27079 pts:110915584 pts_time:2310.74
lavfi.silence_start=2310.29
frame:27211 pts:111456256 pts_time:2322.01
lavfi.silence_end=2322.05
lavfi.silence_duration=11.7658
frame:27220 pts:111493120 pts_time:2322.77
lavfi.silence_start=2322.33
frame:27242 pts:111583232 pts_time:2324.65
lavfi.silence_end=2324.71
lavfi.silence_duration=2.37938
frame:27328 pts:111935488 pts_time:2331.99
lavfi.silence_start=2331.55
frame:27348 pts:112017408 pts_time:2333.7
lavfi.silence_end=2333.76
lavfi.silence_duration=2.21056
frame:27371 pts:112111616 pts_time:2335.66
lavfi.silence_start=2335.21
frame:27384 pts:112164864 pts_time:2336.77
lavfi.silence_end=2336.81
lavfi.silence_duration=1.59617
frame:27452 pts:112443392 pts_time:2342.57
lavfi.silence_start=2342.07
frame:27453 pts:112447488 pts_time:2342.66
lavfi.silence_end=2342.69
lavfi.silence_duration=0.614521
frame:27489 pts:112594944 pts_time:2345.73
lavfi.silence_start=2345.23
lavfi.silence_end=2345.77
lavfi.silence_duration=0.538896
frame:27533 pts:112775168 pts_time:2349.48
lavfi.silence_start=2348.99
frame:27583 pts:112979968 pts_time:2353.75
lavfi.silence_end=2353.83
lavfi.silence_duration=4.83921
frame:27612 pts:113098752 pts_time:2356.22
lavfi.silence_start=2355.73
frame:27632 pts:113180672 pts_time:2357.93
lavfi.silence_end=2357.97
lavfi.silence_duration=2.23894
frame:27642 pts:113221632 pts_time:2358.78
lavfi.silence_start=2358.29
frame:27688 pts:113410048 pts_time:2362.71
lavfi.silence_end=2362.73
lavfi.silence_duration=4.43825
frame:27780 pts:113786880 pts_time:2370.56
lavfi.silence_start=2370.11
frame:27801 pts:113872896 pts_time:2372.35
lavfi.silence_end=2372.35
lavfi.silence_duration=2.23908
frame:27843 pts:114044928 pts_time:2375.94
lavfi.silence_start=2375.51
frame:27944 pts:114458624 pts_time:2384.55
lavfi.silence_end=2384.63
lavfi.silence_duration=9.11881
frame:27987 pts:114634752 pts_time:2388.22
lavfi.silence_start=2387.75
frame:28018 pts:114761728 pts_time:2390.87
lavfi.silence_end=2390.93
lavfi.silence_duration=3.1796
frame:28030 pts:114810880 pts_time:2391.89
lavfi.silence_start=2391.43
frame:28070 pts:114974720 pts_time:2395.31
lavfi.silence_end=2395.35
lavfi.silence_duration=3.91885
frame:28080 pts:115015680 pts_time:2396.16
lavfi.silence_start=2395.69
frame:28097 pts:115085312 pts_time:2397.61
lavfi.silence_end=2397.67
lavfi.silence_duration=1.97871
frame:28107 pts:115126272 pts_time:2398.46
lavfi.silence_start=2397.99
frame:28117 pts:115167232 pts_time:2399.32
lavfi.silence_end=2399.35
lavfi.silence_duration=1.35927
frame:28138 pts:115253248 pts_time:2401.11
lavfi.silence_start=2400.67
frame:28182 pts:115433472 pts_time:2404.86
lavfi.silence_end=2404.87
lavfi.silence_duration=4.19929
frame:28200 pts:115507200 pts_time:2406.4
lavfi.silence_start=2405.95
frame:28236 pts:115654656 pts_time:2409.47
lavfi.silence_end=2409.55
lavfi.silence_duration=3.60037
frame:28247 pts:115699712 pts_time:2410.41
lavfi.silence_start=2409.93
frame:28333 pts:116051968 pts_time:2417.75
lavfi.silence_end=2417.77
lavfi.silence_duration=7.83896
frame:28357 pts:116150272 pts_time:2419.8
lavfi.silence_start=2419.37
frame:28671 pts:117436416 pts_time:2446.59
lavfi.silence_end=2446.61
lavfi.silence_duration=27.2407
frame:28693 pts:117526528 pts_time:2448.47
lavfi.silence_start=2447.99
frame:28703 pts:117567488 pts_time:2449.32
lavfi.silence_end=2449.33
lavfi.silence_duration=1.33837
frame:28723 pts:117649408 pts_time:2451.03
lavfi.silence_start=2450.55
frame:28725 pts:117657600 pts_time:2451.2
lavfi.silence_end=2451.27
lavfi.silence_duration=0.718729
frame:28744 pts:117735424 pts_time:2452.82
lavfi.silence_start=2452.35
frame:28749 pts:117755904 pts_time:2453.25
lavfi.silence_end=2453.31
lavfi.silence_duration=0.955146
frame:28770 pts:117841920 pts_time:2455.04
lavfi.silence_start=2454.57
frame:28777 pts:117870592 pts_time:2455.64
lavfi.silence_end=2455.67
lavfi.silence_duration=1.1
frame:28834 pts:118104064 pts_time:2460.5
lavfi.silence_start=2460.03
frame:28859 pts:118206464 pts_time:2462.63
lavfi.silence_end=2462.65
lavfi.silence_duration=2.6186
frame:28887 pts:118321152 pts_time:2465.02
lavfi.silence_start=2464.53
frame:28888 pts:118325248 pts_time:2465.11
lavfi.silence_end=2465.11
lavfi.silence_duration=0.579187
frame:28896 pts:118358016 pts_time:2465.79
lavfi.silence_start=2465.37
frame:28938 pts:118530048 pts_time:2469.38
lavfi.silence_end=2469.39
lavfi.silence_duration=4.0179
frame:28960 pts:118620160 pts_time:2471.25
lavfi.silence_start=2470.79
frame:30606 pts:125362176 pts_time:2611.71
lavfi.silence_end=2611.77
lavfi.silence_duration=140.979
frame:30655 pts:125562880 pts_time:2615.89
lavfi.silence_start=2615.41
frame:30732 pts:125878272 pts_time:2622.46
lavfi.silence_end=2622.53
lavfi.silence_duration=7.11915
frame:30760 pts:125992960 pts_time:2624.85
lavfi.silence_start=2624.43
frame:30841 pts:126324736 pts_time:2631.77
lavfi.silence_end=2631.79
lavfi.silence_duration=7.36023
frame:30884 pts:126500864 pts_time:2635.43
lavfi.silence_start=2634.95
frame:30946 pts:126754816 pts_time:2640.73
lavfi.silence_end=2640.75
lavfi.silence_duration=5.80131
frame:30955 pts:126791680 pts_time:2641.49
lavfi.silence_start=2641.03
frame:31070 pts:127262720 pts_time:2651.31
lavfi.silence_end=2651.31
lavfi.silence_duration=10.2781
frame:31086 pts:127328256 pts_time:2652.67
lavfi.silence_start=2652.19
frame:31333 pts:128339968 pts_time:2673.75
lavfi.silence_end=2673.81
lavfi.silence_duration=21.624
frame:31374 pts:128507904 pts_time:2677.25
lavfi.silence_start=2676.75
frame:31375 pts:128512000 pts_time:2677.33
lavfi.silence_end=2677.37
lavfi.silence_duration=0.618812
frame:31390 pts:128573440 pts_time:2678.61
lavfi.silence_start=2678.13
frame:31415 pts:128675840 pts_time:2680.75
lavfi.silence_end=2680.77
lavfi.silence_duration=2.63948
frame:31445 pts:128798720 pts_time:2683.31
lavfi.silence_start=2682.81
frame:31454 pts:128835584 pts_time:2684.07
lavfi.silence_end=2684.15
lavfi.silence_duration=1.33925
frame:31475 pts:128921600 pts_time:2685.87
lavfi.silence_start=2685.43
frame:31550 pts:129228800 pts_time:2692.27
lavfi.silence_end=2692.31
lavfi.silence_duration=6.87856
frame:31574 pts:129327104 pts_time:2694.31
lavfi.silence_start=2693.87
frame:31591 pts:129396736 pts_time:2695.77
lavfi.silence_end=2695.77
lavfi.silence_duration=1.8996
frame:31602 pts:129441792 pts_time:2696.7
lavfi.silence_start=2696.27
frame:31605 pts:129454080 pts_time:2696.96
lavfi.silence_end=2697.03
lavfi.silence_duration=0.7585
frame:31667 pts:129708032 pts_time:2702.25
lavfi.silence_start=2701.83
frame:31704 pts:129859584 pts_time:2705.41
lavfi.silence_end=2705.43
lavfi.silence_duration=3.59917
frame:31728 pts:129957888 pts_time:2707.46
lavfi.silence_start=2707.01
frame:31733 pts:129978368 pts_time:2707.88
lavfi.silence_end=2707.93
lavfi.silence_duration=0.919833
frame:31754 pts:130064384 pts_time:2709.67
lavfi.silence_start=2709.23
frame:31789 pts:130207744 pts_time:2712.66
lavfi.silence_end=2712.69
lavfi.silence_duration=3.46037
frame:31822 pts:130342912 pts_time:2715.48
lavfi.silence_start=2715.03
frame:32367 pts:132575232 pts_time:2761.98
lavfi.silence_end=2762.01
lavfi.silence_duration=46.9784
frame:32404 pts:132726784 pts_time:2765.14
lavfi.silence_start=2764.69
frame:32419 pts:132788224 pts_time:2766.42
lavfi.silence_end=2766.43
lavfi.silence_duration=1.73904
frame:32431 pts:132837376 pts_time:2767.45
lavfi.silence_start=2766.99
frame:32449 pts:132911104 pts_time:2768.98
lavfi.silence_end=2769.03
lavfi.silence_duration=2.04221
frame:32467 pts:132984832 pts_time:2770.52
lavfi.silence_start=2770.07
frame:32529 pts:133238784 pts_time:2775.81
lavfi.silence_end=2775.89
lavfi.silence_duration=5.81888
frame:32539 pts:133279744 pts_time:2776.66
lavfi.silence_start=2776.19
frame:32761 pts:134189056 pts_time:2795.61
lavfi.silence_end=2795.67
lavfi.silence_duration=19.4787
frame:32809 pts:134385664 pts_time:2799.7
lavfi.silence_start=2799.25
frame:32815 pts:134410240 pts_time:2800.21
lavfi.silence_end=2800.22
lavfi.silence_duration=0.976562
frame:32859 pts:134590464 pts_time:2803.97
lavfi.silence_start=2803.5
frame:32874 pts:134651904 pts_time:2805.25
lavfi.silence_end=2805.26
lavfi.silence_duration=1.75994
frame:32916 pts:134823936 pts_time:2808.83
lavfi.silence_start=2808.37
frame:33005 pts:135188480 pts_time:2816.43
lavfi.silence_end=2816.47
lavfi.silence_duration=8.09871
frame:33087 pts:135524352 pts_time:2823.42
lavfi.silence_start=2822.94
frame:33151 pts:135786496 pts_time:2828.89
lavfi.silence_end=2828.89
lavfi.silence_duration=5.94631
frame:33168 pts:135856128 pts_time:2830.34
lavfi.silence_start=2829.84
frame:33248 pts:136183808 pts_time:2837.16
lavfi.silence_end=2837.16
lavfi.silence_duration=7.31994
frame:33277 pts:136302592 pts_time:2839.64
lavfi.silence_start=2839.21
frame:33317 pts:136466432 pts_time:2843.05
lavfi.silence_end=2843.09
lavfi.silence_duration=3.87894
frame:33333 pts:136531968 pts_time:2844.42
lavfi.silence_start=2843.95
frame:33371 pts:136687616 pts_time:2847.66
lavfi.silence_end=2847.72
lavfi.silence_duration=3.77304
frame:33410 pts:136847360 pts_time:2850.99
lavfi.silence_start=2850.57
frame:33435 pts:136949760 pts_time:2853.12
lavfi.silence_end=2853.15
lavfi.silence_duration=2.57954
frame:33444 pts:136986624 pts_time:2853.89
lavfi.silence_start=2853.41
frame:33452 pts:137019392 pts_time:2854.57
lavfi.silence_end=2854.61
lavfi.silence_duration=1.1991
frame:33472 pts:137101312 pts_time:2856.28
lavfi.silence_start=2855.83
frame:33827 pts:138555392 pts_time:2886.57
lavfi.silence_end=2886.63
lavfi.silence_duration=30.8014
frame:33843 pts:138620928 pts_time:2887.94
lavfi.silence_start=2887.47
frame:33866 pts:138715136 pts_time:2889.9
lavfi.silence_end=2889.97
lavfi.silence_duration=2.49969
frame:33875 pts:138752000 pts_time:2890.67
lavfi.silence_start=2890.25
frame:33943 pts:139030528 pts_time:2896.47
lavfi.silence_end=2896.53
lavfi.silence_duration=6.27969
frame:33980 pts:139182080 pts_time:2899.63
lavfi.silence_start=2899.19
frame:34301 pts:140496896 pts_time:2927.02
lavfi.silence_end=2927.05
lavfi.silence_duration=27.8615
frame:34311 pts:140537856 pts_time:2927.87
lavfi.silence_start=2927.41
frame:34407 pts:140931072 pts_time:2936.06
lavfi.silence_end=2936.09
lavfi.silence_duration=8.67844
frame:34428 pts:141017088 pts_time:2937.86
lavfi.silence_start=2937.39
frame:34530 pts:141434880 pts_time:2946.56
lavfi.silence_end=2946.63
lavfi.silence_duration=9.23944
frame:34587 pts:141668352 pts_time:2951.42
lavfi.silence_start=2950.93
frame:34601 pts:141725696 pts_time:2952.62
lavfi.silence_end=2952.69
lavfi.silence_duration=1.75856
frame:34634 pts:141860864 pts_time:2955.43
lavfi.silence_start=2954.99
frame:34848 pts:142737408 pts_time:2973.7
lavfi.silence_end=2973.77
lavfi.silence_duration=18.7781
frame:34872 pts:142835712 pts_time:2975.74
lavfi.silence_start=2975.29
frame:34948 pts:143147008 pts_time:2982.23
lavfi.silence_end=2982.31
lavfi.silence_duration=7.01992
frame:35040 pts:143523840 pts_time:2990.08
lavfi.silence_start=2989.61
frame:35057 pts:143593472 pts_time:2991.53
lavfi.silence_end=2991.55
lavfi.silence_duration=1.93892
frame:35066 pts:143630336 pts_time:2992.3
lavfi.silence_start=2991.87
frame:35134 pts:143908864 pts_time:2998.1
lavfi.silence_end=2998.19
lavfi.silence_duration=6.3185
frame:35159 pts:144011264 pts_time:3000.23
lavfi.silence_start=2999.79
frame:35171 pts:144060416 pts_time:3001.26
lavfi.silence_end=3001.33
lavfi.silence_duration=1.54117
frame:35196 pts:144162816 pts_time:3003.39
lavfi.silence_start=3002.92
frame:35204 pts:144195584 pts_time:3004.07
lavfi.silence_end=3004.09
lavfi.silence_duration=1.16402
frame:35232 pts:144310272 pts_time:3006.46
lavfi.silence_start=3005.99
frame:35290 pts:144547840 pts_time:3011.41
lavfi.silence_end=3011.43
lavfi.silence_duration=5.43987
frame:35331 pts:144715776 pts_time:3014.91
lavfi.silence_start=3014.47
frame:35341 pts:144756736 pts_time:3015.77
lavfi.silence_end=3015.81
lavfi.silence_duration=1.33904
frame:35368 pts:144867328 pts_time:3018.07
lavfi.silence_start=3017.58
frame:35376 pts:144900096 pts_time:3018.75
lavfi.silence_end=3018.79
lavfi.silence_duration=1.20606
frame:35387 pts:144945152 pts_time:3019.69
lavfi.silence_start=3019.25
frame:35395 pts:144977920 pts_time:3020.37
lavfi.silence_end=3020.41
lavfi.silence_duration=1.15806
frame:35413 pts:145051648 pts_time:3021.91
lavfi.silence_start=3021.43
frame:35656 pts:146046976 pts_time:3042.65
lavfi.silence_end=3042.72
lavfi.silence_duration=21.2949
frame:35678 pts:146137088 pts_time:3044.52
lavfi.silence_start=3044.09
frame:35693 pts:146198528 pts_time:3045.8
lavfi.silence_end=3045.87
lavfi.silence_duration=1.77908
frame:35707 pts:146255872 pts_time:3047
lavfi.silence_start=3046.51
frame:35708 pts:146259968 pts_time:3047.08
lavfi.silence_end=3047.13
lavfi.silence_duration=0.619917
frame:35748 pts:146423808 pts_time:3050.5
lavfi.silence_start=3050
frame:35772 pts:146522112 pts_time:3052.54
lavfi.silence_end=3052.61
lavfi.silence_duration=2.60613
frame:35820 pts:146718720 pts_time:3056.64
lavfi.silence_start=3056.16
frame:36245 pts:148459520 pts_time:3092.91
lavfi.silence_end=3092.95
lavfi.silence_duration=36.7845
frame:36259 pts:148516864 pts_time:3094.1
lavfi.silence_start=3093.61
frame:36284 pts:148619264 pts_time:3096.23
lavfi.silence_end=3096.3
lavfi.silence_duration=2.6949
frame:36302 pts:148692992 pts_time:3097.77
lavfi.silence_start=3097.28
frame:36360 pts:148930560 pts_time:3102.72
lavfi.silence_end=3102.8
lavfi.silence_duration=5.52385
frame:36387 pts:149041152 pts_time:3105.02
lavfi.silence_start=3104.54
frame:36405 pts:149114880 pts_time:3106.56
lavfi.silence_end=3106.56
lavfi.silence_duration=2.01677
frame:36418 pts:149168128 pts_time:3107.67
lavfi.silence_start=3107.18
frame:36457 pts:149327872 pts_time:3111
lavfi.silence_end=3111.01
lavfi.silence_duration=3.82419
frame:36493 pts:149475328 pts_time:3114.07
lavfi.silence_start=3113.65
frame:36494 pts:149479424 pts_time:3114.15
lavfi.silence_end=3114.17
lavfi.silence_duration=0.518875
frame:36582 pts:149839872 pts_time:3121.66
lavfi.silence_start=3121.25
frame:36598 pts:149905408 pts_time:3123.03
lavfi.silence_end=3123.11
lavfi.silence_duration=1.85904
frame:36646 pts:150102016 pts_time:3127.13
lavfi.silence_start=3126.71
frame:36663 pts:150171648 pts_time:3128.58
lavfi.silence_end=3128.63
lavfi.silence_duration=1.9185
frame:36672 pts:150208512 pts_time:3129.34
lavfi.silence_start=3128.89
frame:36682 pts:150249472 pts_time:3130.2
lavfi.silence_end=3130.23
lavfi.silence_duration=1.33956
frame:36691 pts:150286336 pts_time:3130.97
lavfi.silence_start=3130.53
frame:36704 pts:150339584 pts_time:3132.07
lavfi.silence_end=3132.1
lavfi.silence_duration=1.57433
frame:36722 pts:150413312 pts_time:3133.61
lavfi.silence_start=3133.17
frame:36783 pts:150663168 pts_time:3138.82
lavfi.silence_end=3138.87
lavfi.silence_duration=5.69931
frame:36792 pts:150700032 pts_time:3139.58
lavfi.silence_start=3139.15
frame:36805 pts:150753280 pts_time:3140.69
lavfi.silence_end=3140.77
lavfi.silence_duration=1.62052
frame:36815 pts:150794240 pts_time:3141.55
lavfi.silence_start=3141.07
frame:36818 pts:150806528 pts_time:3141.8
lavfi.silence_end=3141.87
lavfi.silence_duration=0.80125
frame:36847 pts:150925312 pts_time:3144.28
lavfi.silence_start=3143.79
frame:36958 pts:151379968 pts_time:3153.75
lavfi.silence_end=3153.81
lavfi.silence_duration=10.0115
frame:36972 pts:151437312 pts_time:3154.94
lavfi.silence_start=3154.47
lavfi.silence_end=3155
lavfi.silence_duration=0.53825
frame:37011 pts:151597056 pts_time:3158.27
lavfi.silence_start=3157.79
frame:37017 pts:151621632 pts_time:3158.78
lavfi.silence_end=3158.78
lavfi.silence_duration=0.999792
frame:37045 pts:151736320 pts_time:3161.17
lavfi.silence_start=3160.73
frame:37079 pts:151875584 pts_time:3164.07
lavfi.silence_end=3164.13
lavfi.silence_duration=3.39904
frame:37088 pts:151912448 pts_time:3164.84
lavfi.silence_start=3164.39
frame:37225 pts:152473600 pts_time:3176.53
lavfi.silence_end=3176.57
lavfi.silence_duration=12.1791
frame:37248 pts:152567808 pts_time:3178.5
lavfi.silence_start=3178.03
frame:37330 pts:152903680 pts_time:3185.49
lavfi.silence_end=3185.57
lavfi.silence_duration=7.53954
frame:37343 pts:152956928 pts_time:3186.6
lavfi.silence_start=3186.15
frame:37355 pts:153006080 pts_time:3187.63
lavfi.silence_end=3187.69
lavfi.silence_duration=1.53902
frame:37381 pts:153112576 pts_time:3189.85
lavfi.silence_start=3189.43
frame:37393 pts:153161728 pts_time:3190.87
lavfi.silence_end=3190.95
lavfi.silence_duration=1.52879
frame:37432 pts:153321472 pts_time:3194.2
lavfi.silence_start=3193.71
frame:37437 pts:153341952 pts_time:3194.62
lavfi.silence_end=3194.67
lavfi.silence_duration=0.959583
frame:37511 pts:153645056 pts_time:3200.94
lavfi.silence_start=3200.46
frame:37610 pts:154050560 pts_time:3209.39
lavfi.silence_end=3209.42
lavfi.silence_duration=8.9639
frame:37624 pts:154107904 pts_time:3210.58
lavfi.silence_start=3210.14
frame:37665 pts:154275840 pts_time:3214.08
lavfi.silence_end=3214.16
lavfi.silence_duration=4.0244
frame:37719 pts:154497024 pts_time:3218.69
lavfi.silence_start=3218.26
frame:37723 pts:154513408 pts_time:3219.03
lavfi.silence_end=3219.06
lavfi.silence_duration=0.799562
frame:37740 pts:154583040 pts_time:3220.48
lavfi.silence_start=3220.04
frame:37750 pts:154624000 pts_time:3221.33
lavfi.silence_end=3221.38
lavfi.silence_duration=1.33902
frame:37864 pts:155090944 pts_time:3231.06
lavfi.silence_start=3230.64
frame:37865 pts:155095040 pts_time:3231.15
lavfi.silence_end=3231.22
lavfi.silence_duration=0.577063
frame:37906 pts:155262976 pts_time:3234.65
lavfi.silence_start=3234.22
frame:37910 pts:155279360 pts_time:3234.99
lavfi.silence_end=3235.06
lavfi.silence_duration=0.839938
frame:37940 pts:155402240 pts_time:3237.55
lavfi.silence_start=3237.08
frame:37947 pts:155430912 pts_time:3238.14
lavfi.silence_end=3238.18
lavfi.silence_duration=1.09912
frame:37986 pts:155590656 pts_time:3241.47
lavfi.silence_start=3240.98
frame:37988 pts:155598848 pts_time:3241.64
lavfi.silence_end=3241.66
lavfi.silence_duration=0.680896
frame:38027 pts:155758592 pts_time:3244.97
lavfi.silence_start=3244.5
frame:38031 pts:155774976 pts_time:3245.31
lavfi.silence_end=3245.32
lavfi.silence_duration=0.814333
frame:38042 pts:155820032 pts_time:3246.25
lavfi.silence_start=3245.76
frame:38050 pts:155852800 pts_time:3246.93
lavfi.silence_end=3247
lavfi.silence_duration=1.24033
frame:38098 pts:156049408 pts_time:3251.03
lavfi.silence_start=3250.58
frame:38101 pts:156061696 pts_time:3251.29
lavfi.silence_end=3251.36
lavfi.silence_duration=0.779875
frame:38167 pts:156332032 pts_time:3256.92
lavfi.silence_start=3256.48
frame:38193 pts:156438528 pts_time:3259.14
lavfi.silence_end=3259.18
lavfi.silence_duration=2.69944
frame:38203 pts:156479488 pts_time:3259.99
lavfi.silence_start=3259.54
frame:38216 pts:156532736 pts_time:3261.1
lavfi.silence_end=3261.18
lavfi.silence_duration=1.6385
frame:38281 pts:156798976 pts_time:3266.65
lavfi.silence_start=3266.18
frame:38342 pts:157048832 pts_time:3271.85
lavfi.silence_end=3271.88
lavfi.silence_duration=5.70469
frame:38404 pts:157302784 pts_time:3277.14
lavfi.silence_start=3276.72
frame:38410 pts:157327360 pts_time:3277.65
lavfi.silence_end=3277.72
lavfi.silence_duration=1.00062
frame:38420 pts:157368320 pts_time:3278.51
lavfi.silence_start=3278.08
frame:38442 pts:157458432 pts_time:3280.38
lavfi.silence_end=3280.47
lavfi.silence_duration=2.38073
frame:38466 pts:157556736 pts_time:3282.43
lavfi.silence_start=3281.96
frame:38654 pts:158326784 pts_time:3298.47
lavfi.silence_end=3298.52
lavfi.silence_duration=16.5591
frame:38693 pts:158486528 pts_time:3301.8
lavfi.silence_start=3301.34
frame:38754 pts:158736384 pts_time:3307.01
lavfi.silence_end=3307.04
lavfi.silence_duration=5.69994
frame:38786 pts:158867456 pts_time:3309.74
lavfi.silence_start=3309.28
frame:38834 pts:159064064 pts_time:3313.83
lavfi.silence_end=3313.89
lavfi.silence_duration=4.60612
frame:38860 pts:159170560 pts_time:3316.05
lavfi.silence_start=3315.6
frame:38907 pts:159363072 pts_time:3320.06
lavfi.silence_end=3320.07
lavfi.silence_duration=4.46125
frame:38960 pts:159580160 pts_time:3324.59
lavfi.silence_start=3324.1
frame:39087 pts:160100352 pts_time:3335.42
lavfi.silence_end=3335.5
lavfi.silence_duration=11.3986
frame:39153 pts:160370688 pts_time:3341.06
lavfi.silence_start=3340.59
frame:39245 pts:160747520 pts_time:3348.91
lavfi.silence_end=3348.96
lavfi.silence_duration=8.37829
frame:39267 pts:160837632 pts_time:3350.78
lavfi.silence_start=3350.34
frame:39278 pts:160882688 pts_time:3351.72
lavfi.silence_end=3351.76
lavfi.silence_duration=1.41908
frame:39288 pts:160923648 pts_time:3352.58
lavfi.silence_start=3352.08
frame:39416 pts:161447936 pts_time:3363.5
lavfi.silence_end=3363.52
lavfi.silence_duration=11.4385
frame:39498 pts:161783808 pts_time:3370.5
lavfi.silence_start=3370
frame:39526 pts:161898496 pts_time:3372.89
lavfi.silence_end=3372.9
lavfi.silence_duration=2.89502
frame:39576 pts:162103296 pts_time:3377.15
lavfi.silence_start=3376.66
frame:39581 pts:162123776 pts_time:3377.58
lavfi.silence_end=3377.6
lavfi.silence_duration=0.938708
frame:39610 pts:162242560 pts_time:3380.05
lavfi.silence_start=3379.56
frame:39625 pts:162304000 pts_time:3381.33
lavfi.silence_end=3381.4
lavfi.silence_duration=1.83921
frame:39641 pts:162369536 pts_time:3382.7
lavfi.silence_start=3382.26
frame:39689 pts:162566144 pts_time:3386.79
lavfi.silence_end=3386.84
lavfi.silence_duration=4.57888
frame:39721 pts:162697216 pts_time:3389.53
lavfi.silence_start=3389.06
frame:39752 pts:162824192 pts_time:3392.17
lavfi.silence_end=3392.24
lavfi.silence_duration=3.17908
frame:39780 pts:162938880 pts_time:3394.56
lavfi.silence_start=3394.14
frame:39782 pts:162947072 pts_time:3394.73
lavfi.silence_end=3394.74
lavfi.silence_duration=0.599812
frame:39822 pts:163110912 pts_time:3398.14
lavfi.silence_start=3397.66
frame:39840 pts:163184640 pts_time:3399.68
lavfi.silence_end=3399.72
lavfi.silence_duration=2.06317
frame:39869 pts:163303424 pts_time:3402.15
lavfi.silence_start=3401.66
frame:39926 pts:163536896 pts_time:3407.02
lavfi.silence_end=3407.1
lavfi.silence_duration=5.43935
frame:39949 pts:163631104 pts_time:3408.98
lavfi.silence_start=3408.56
frame:39981 pts:163762176 pts_time:3411.71
lavfi.silence_end=3411.72
lavfi.silence_duration=3.16617
frame:40013 pts:163893248 pts_time:3414.44
lavfi.silence_start=3413.98
frame:40035 pts:163983360 pts_time:3416.32
lavfi.silence_end=3416.34
lavfi.silence_duration=2.35871
frame:40058 pts:164077568 pts_time:3418.28
lavfi.silence_start=3417.86
frame:40083 pts:164179968 pts_time:3420.42
lavfi.silence_end=3420.46
lavfi.silence_duration=2.60054
frame:40151 pts:164458496 pts_time:3426.22
lavfi.silence_start=3425.72
frame:40157 pts:164483072 pts_time:3426.73
lavfi.silence_end=3426.78
lavfi.silence_duration=1.05935
frame:40177 pts:164564992 pts_time:3428.44
lavfi.silence_start=3427.94
frame:40226 pts:164765696 pts_time:3432.62
lavfi.silence_end=3432.62
lavfi.silence_duration=4.67923
frame:40300 pts:165068800 pts_time:3438.93
lavfi.silence_start=3438.48
frame:40318 pts:165142528 pts_time:3440.47
lavfi.silence_end=3440.48
lavfi.silence_duration=1.99531
frame:40345 pts:165253120 pts_time:3442.77
lavfi.silence_start=3442.28
frame:40367 pts:165343232 pts_time:3444.65
lavfi.silence_end=3444.66
lavfi.silence_duration=2.38173
frame:40413 pts:165531648 pts_time:3448.58
lavfi.silence_start=3448.08
frame:40430 pts:165601280 pts_time:3450.03
lavfi.silence_end=3450.08
lavfi.silence_duration=2.00052
frame:40469 pts:165761024 pts_time:3453.35
lavfi.silence_start=3452.86
frame:40473 pts:165777408 pts_time:3453.7
lavfi.silence_end=3453.74
lavfi.silence_duration=0.878729
frame:40615 pts:166359040 pts_time:3465.81
lavfi.silence_start=3465.34
frame:40646 pts:166486016 pts_time:3468.46
lavfi.silence_end=3468.46
lavfi.silence_duration=3.12404
frame:40682 pts:166633472 pts_time:3471.53
lavfi.silence_start=3471.08
frame:40737 pts:166858752 pts_time:3476.22
lavfi.silence_end=3476.3
lavfi.silence_duration=5.2246
frame:40753 pts:166924288 pts_time:3477.59
lavfi.silence_start=3477.12
frame:40763 pts:166965248 pts_time:3478.44
lavfi.silence_end=3478.49
lavfi.silence_duration=1.36604
frame:40826 pts:167223296 pts_time:3483.82
lavfi.silence_start=3483.36
frame:40827 pts:167227392 pts_time:3483.9
lavfi.silence_end=3483.96
lavfi.silence_duration=0.596812
frame:40842 pts:167288832 pts_time:3485.18
lavfi.silence_start=3484.76
frame:40848 pts:167313408 pts_time:3485.7
lavfi.silence_end=3485.74
lavfi.silence_duration=0.974479
frame:40881 pts:167448576 pts_time:3488.51
lavfi.silence_start=3488.02
frame:40883 pts:167456768 pts_time:3488.68
lavfi.silence_end=3488.72
lavfi.silence_duration=0.706646
frame:40971 pts:167817216 pts_time:3496.19
lavfi.silence_start=3495.74
frame:41002 pts:167944192 pts_time:3498.84
lavfi.silence_end=3498.86
lavfi.silence_duration=3.11877
frame:41017 pts:168005632 pts_time:3500.12
lavfi.silence_start=3499.64
frame:41052 pts:168148992 pts_time:3503.1
lavfi.silence_end=3503.16
lavfi.silence_duration=3.51815
frame:41074 pts:168239104 pts_time:3504.98
lavfi.silence_start=3504.5
frame:41875 pts:171520000 pts_time:3573.33
lavfi.silence_end=3573.38
lavfi.silence_duration=68.8838
frame:41885 pts:171560960 pts_time:3574.19
lavfi.silence_start=3573.7
frame:42019 pts:172109824 pts_time:3585.62
lavfi.silence_end=3585.64
lavfi.silence_duration=11.9388
frame:42053 pts:172249088 pts_time:3588.52
lavfi.silence_start=3588.04
frame:42088 pts:172392448 pts_time:3591.51
lavfi.silence_end=3591.56
lavfi.silence_duration=3.51946
frame:42097 pts:172429312 pts_time:3592.28
lavfi.silence_start=3591.84
frame:42100 pts:172441600 pts_time:3592.53
lavfi.silence_end=3592.56
lavfi.silence_duration=0.718583
frame:42160 pts:172687360 pts_time:3597.65
lavfi.silence_start=3597.2
